﻿[{
	"EventID": 1,
	"Seq": 1,
	"EventType": 1,
	"Value": 0,
	"FunctionName": "TestFuncton",
	"OccurType": 0
}, {
	"EventID": 1,
	"Seq": 2,
	"EventType": 1,
	"Value": 10,
	"FunctionName": "TestFuncton",
	"OccurType": 0
}, {
	"EventID": 1,
	"Seq": 3,
	"EventType": 2,
	"Value": 100,
	"FunctionName": "TestFuncton",
	"OccurType": 0
}, {
	"EventID": 1,
	"Seq": 4,
	"EventType": 1,
	"Value": 200,
	"FunctionName": "TestFuncton",
	"OccurType": 0
}, {
	"EventID": 2,
	"Seq": 1,
	"EventType": 1,
	"Value": 300,
	"FunctionName": "TestFuncton2",
	"OccurType": 0
}, {
	"EventID": 2,
	"Seq": 2,
	"EventType": 1,
	"Value": 400,
	"FunctionName": "TestFuncton2",
	"OccurType": 0
}, {
	"EventID": 2,
	"Seq": 3,
	"EventType": 1,
	"Value": 500,
	"FunctionName": "TestFuncton2",
	"OccurType": 0
}, {
	"EventID": 2,
	"Seq": 4,
	"EventType": 1,
	"Value": 600,
	"FunctionName": "TestFuncton2",
	"OccurType": 0
}]