﻿[{
	"FacilityID": 0,
	"Rank": 0,
	"name": "未使用Will",
	"IntervalSeconds": 1,
	"BaseValue": 1,
	"LevelAddition": 0,
	"LevelMagnitude": 1
}, {
	"FacilityID": 1,
	"Rank": 1,
	"name": "Net",
	"IntervalSeconds": 3,
	"BaseValue": 1,
	"LevelAddition": 0,
	"LevelMagnitude": 2
}, {
	"FacilityID": 2,
	"Rank": 2,
	"name": "LargeNet",
	"IntervalSeconds": 20,
	"BaseValue": 10,
	"LevelAddition": 0,
	"LevelMagnitude": 1.1
}, {
	"FacilityID": 3,
	"Rank": 3,
	"name": "Vacuum",
	"IntervalSeconds": 0.5,
	"BaseValue": 1,
	"LevelAddition": 1,
	"LevelMagnitude": 1.8
}, {
	"FacilityID": 4,
	"Rank": 4,
	"name": "LittleDrone",
	"IntervalSeconds": 30,
	"BaseValue": 5000,
	"LevelAddition": 0,
	"LevelMagnitude": 3
}, {
	"FacilityID": 5,
	"Rank": 5,
	"name": "Drone",
	"IntervalSeconds": 60,
	"BaseValue": 12000,
	"LevelAddition": 0,
	"LevelMagnitude": 5.5
}, {
	"FacilityID": 6,
	"Rank": 1,
	"name": "test1",
	"IntervalSeconds": 1,
	"BaseValue": 1,
	"LevelAddition": 0,
	"LevelMagnitude": 1
}, {
	"FacilityID": 7,
	"Rank": 1,
	"name": "test2",
	"IntervalSeconds": 1,
	"BaseValue": 1,
	"LevelAddition": 0,
	"LevelMagnitude": 1
}, {
	"FacilityID": 8,
	"Rank": 1,
	"name": "test3",
	"IntervalSeconds": 1,
	"BaseValue": 1,
	"LevelAddition": 0,
	"LevelMagnitude": 1
}, {
	"FacilityID": 9,
	"Rank": 1,
	"name": "test4",
	"IntervalSeconds": 1,
	"BaseValue": 1,
	"LevelAddition": 0,
	"LevelMagnitude": 1
}, {
	"FacilityID": 10,
	"Rank": 1,
	"name": "test5",
	"IntervalSeconds": 1,
	"BaseValue": 1,
	"LevelAddition": 0,
	"LevelMagnitude": 1
}]